{
  "ABIRoot": {
    "kind": "Root",
    "name": "TopLevel",
    "printedName": "TopLevel",
    "children": [
      {
        "kind": "Import",
        "name": "Foundation",
        "printedName": "Foundation",
        "declKind": "Import",
        "moduleName": "DESwiftFibonacci",
        "declAttributes": [
          "RawDocComment"
        ]
      },
      {
        "kind": "Import",
        "name": "Foundation",
        "printedName": "Foundation",
        "declKind": "Import",
        "moduleName": "DESwiftFibonacci",
        "declAttributes": [
          "RawDocComment"
        ]
      },
      {
        "kind": "TypeDecl",
        "name": "DEFibonacci",
        "printedName": "DEFibonacci",
        "children": [
          {
            "kind": "Constructor",
            "name": "init",
            "printedName": "init()",
            "children": [
              {
                "kind": "TypeNominal",
                "name": "DEFibonacci",
                "printedName": "DESwiftFibonacci.DEFibonacci",
                "usr": "s:16DESwiftFibonacci11DEFibonacciC"
              }
            ],
            "declKind": "Constructor",
            "usr": "s:16DESwiftFibonacci11DEFibonacciCACycfc",
            "mangledName": "$s16DESwiftFibonacci11DEFibonacciCACycfc",
            "moduleName": "DESwiftFibonacci",
            "declAttributes": [
              "AccessControl"
            ],
            "init_kind": "Designated"
          },
          {
            "kind": "Function",
            "name": "calculate",
            "printedName": "calculate(usingNumber:onCompletion:)",
            "children": [
              {
                "kind": "TypeNominal",
                "name": "Void",
                "printedName": "()"
              },
              {
                "kind": "TypeNominal",
                "name": "Int",
                "printedName": "Swift.Int",
                "usr": "s:Si"
              },
              {
                "kind": "TypeFunc",
                "name": "Function",
                "printedName": "(Swift.Int64) -> ()",
                "children": [
                  {
                    "kind": "TypeNominal",
                    "name": "Void",
                    "printedName": "()"
                  },
                  {
                    "kind": "TypeNominal",
                    "name": "Int64",
                    "printedName": "Swift.Int64",
                    "usr": "s:s5Int64V"
                  }
                ]
              }
            ],
            "declKind": "Func",
            "usr": "s:16DESwiftFibonacci11DEFibonacciC9calculate11usingNumber12onCompletionySi_ys5Int64VctF",
            "mangledName": "$s16DESwiftFibonacci11DEFibonacciC9calculate11usingNumber12onCompletionySi_ys5Int64VctF",
            "moduleName": "DESwiftFibonacci",
            "declAttributes": [
              "AccessControl",
              "RawDocComment"
            ],
            "funcSelfKind": "NonMutating"
          },
          {
            "kind": "Function",
            "name": "cancelCalculation",
            "printedName": "cancelCalculation()",
            "children": [
              {
                "kind": "TypeNominal",
                "name": "Void",
                "printedName": "()"
              }
            ],
            "declKind": "Func",
            "usr": "s:16DESwiftFibonacci11DEFibonacciC17cancelCalculationyyF",
            "mangledName": "$s16DESwiftFibonacci11DEFibonacciC17cancelCalculationyyF",
            "moduleName": "DESwiftFibonacci",
            "declAttributes": [
              "AccessControl",
              "RawDocComment"
            ],
            "funcSelfKind": "NonMutating"
          }
        ],
        "declKind": "Class",
        "usr": "s:16DESwiftFibonacci11DEFibonacciC",
        "mangledName": "$s16DESwiftFibonacci11DEFibonacciC",
        "moduleName": "DESwiftFibonacci",
        "declAttributes": [
          "AccessControl",
          "RawDocComment"
        ]
      }
    ],
    "json_format_version": 8
  },
  "ConstValues": [
    {
      "filePath": "\/Users\/diego\/Developer\/projects\/personal\/demos\/acrobits\/DESwiftFibonacci\/DESwiftFibonacci\/Source\/DEFibonacciOperation.swift",
      "kind": "IntegerLiteral",
      "offset": 214,
      "length": 1,
      "value": "0"
    },
    {
      "filePath": "\/Users\/diego\/Developer\/projects\/personal\/demos\/acrobits\/DESwiftFibonacci\/DESwiftFibonacci\/Source\/DEFibonacciOperation.swift",
      "kind": "StringLiteral",
      "offset": 138,
      "length": 18,
      "value": "\"DESwiftFibonacci.FibonacciOperation\""
    }
  ]
}